{
  "name": "Counter",
  "image": "count.jpg",
  "animations": [
    {
        "frameWidth": 200,
        "frameHeight": 256,
        "frameDuration": 200,
        "name": "Red",
        "framePositions": [
          [0,   0], [200,   0], [400,   0], [600,   0], [800,   0]
        ]
    },
    {
      "frameWidth": 200,
      "frameHeight": 256,
      "frameDuration": 200,
      "name": "Green",
      "framePositions": [
          [0, 256], [200, 256], [400, 256], [600, 256], [800, 256]
      ]
    },
    {
      "frameWidth": 200,
      "frameHeight": 256,
      "frameDuration": 200,
      "name": "Blue",
      "framePositions": [
          [0, 512], [200, 512], [400, 512], [600, 512], [800, 512]
      ]
    }
  ]
}
